{
  "opos": {
    "H04H5B": {
      "name": "Studie van declaratieve talen",
      "sp": 4,
      "phases": [
        {
          "phase": 1,
          "mandatory": false
        }
      ],
      "semester": "first",
      "code": "H04H5B",
      "docents": [
        "G.Janssens (co\u00f6rdinator)",
        "T.Schrijvers"
      ]
    },
    "H04J9B": {
      "name": "Ontwerp van softwaresystemen",
      "sp": 6,
      "phases": [
        {
          "phase": 1,
          "mandatory": false
        }
      ],
      "semester": "first",
      "code": "H04J9B",
      "docents": [
        "R.Wuyts"
      ]
    },
    "H0O07A": {
      "name": "Ontwerp van algoritmen",
      "sp": 3,
      "phases": [
        {
          "phase": 1,
          "mandatory": false
        }
      ],
      "semester": "first",
      "code": "H0O07A",
      "docents": [
        "P.Dutr\u00e9"
      ]
    },
    "H04H0B": {
      "name": "Fundamenten voor de computerwetenschappen",
      "sp": 5,
      "phases": [
        {
          "phase": 1,
          "mandatory": false
        }
      ],
      "semester": "second",
      "code": "H04H0B",
      "docents": [
        "T.Schrijvers (co\u00f6rdinator)",
        "G.Janssens",
        "T.Schrijvers"
      ]
    },
    "H01F2A": {
      "name": "Bedrijfskunde & entrepreneurship",
      "sp": 6,
      "phases": [
        {
          "phase": 1,
          "mandatory": false
        }
      ],
      "semester": "first",
      "code": "H01F2A",
      "docents": [
        "P.Vansteenwegen"
      ]
    },
    "G0Q57A": {
      "name": "Modellering en simulatie",
      "sp": 6,
      "phases": [
        {
          "phase": 1,
          "mandatory": false
        }
      ],
      "semester": "first",
      "code": "G0Q57A",
      "docents": [
        "R.Cools (co\u00f6rdinator)",
        "W.Michiels",
        "D.Nuyens"
      ]
    },
    "H01L1A": {
      "name": "Digitale elektronica en processoren",
      "sp": 6,
      "phases": [
        {
          "phase": 1,
          "mandatory": false
        }
      ],
      "semester": "second",
      "code": "H01L1A",
      "docents": [
        "M.Verhelst"
      ]
    },
    "H04I4A": {
      "name": "Gedistribueerde systemen",
      "sp": 6,
      "phases": [
        {
          "phase": 1,
          "mandatory": true
        }
      ],
      "semester": "first",
      "code": "H04I4A",
      "docents": [
        "W.Joosen (co\u00f6rdinator)",
        "T.Van Cutsem"
      ]
    },
    "H0E96A": {
      "name": "Beginselen van machine learning",
      "sp": 6,
      "phases": [
        {
          "phase": 1,
          "mandatory": true
        }
      ],
      "semester": "first",
      "code": "H0E96A",
      "docents": [
        "H.Blockeel (co\u00f6rdinator)",
        "L.De Raedt"
      ]
    },
    "G0B23A": {
      "name": "Modellering van complexe systemen",
      "sp": 6,
      "phases": [
        {
          "phase": 1,
          "mandatory": true
        }
      ],
      "semester": "second",
      "code": "G0B23A",
      "docents": [
        "M.Denecker"
      ]
    },
    "H09B5B": {
      "name": "Softwarearchitectuur",
      "sp": 4,
      "phases": [
        {
          "phase": 1,
          "mandatory": true
        }
      ],
      "semester": "second",
      "code": "H09B5B",
      "docents": [
        "W.Joosen"
      ]
    },
    "H04L5A": {
      "name": "Vergelijkende studie van imperatieve programmeertalen",
      "sp": 6,
      "phases": [
        {
          "phase": 2,
          "mandatory": true
        }
      ],
      "semester": "first",
      "code": "H04L5A",
      "docents": [
        "F.Piessens"
      ]
    },
    "H04I0A": {
      "name": "Industrial Internet Infrastructure",
      "sp": 5,
      "phases": [
        {
          "phase": 1,
          "mandatory": false
        },
        {
          "phase": 2,
          "mandatory": false
        }
      ],
      "semester": "second",
      "code": "H04I0A",
      "docents": [
        "D.Hughes (co\u00f6rdinator)"
      ]
    },
    "G0K31B": {
      "name": "Gedistribueerde softwarearchitecturen: verdiepende studie",
      "sp": 4,
      "phases": [
        {
          "phase": 1,
          "mandatory": false
        },
        {
          "phase": 2,
          "mandatory": false
        }
      ],
      "semester": "second",
      "code": "G0K31B",
      "docents": [
        "W.Joosen (co\u00f6rdinator)",
        "D.Preuveneers",
        "T.Van Cutsem"
      ]
    },
    "H04G7A": {
      "name": "Capita Selecta Computer Science: Distributed Systems",
      "sp": 4,
      "phases": [
        {
          "phase": 2,
          "mandatory": true
        }
      ],
      "semester": "both",
      "code": "H04G7A",
      "docents": [
        "W.Joosen (co\u00f6rdinator)",
        "T.Holvoet",
        "D.Hughes",
        "W.Joosen"
      ]
    },
    "H02H4A": {
      "name": "Multi-Agent Systems",
      "sp": 4,
      "phases": [
        {
          "phase": 1,
          "mandatory": false
        },
        {
          "phase": 2,
          "mandatory": false
        }
      ],
      "semester": "none",
      "code": "H02H4A",
      "docents": [
        "T.Holvoet"
      ]
    },
    "H04L2A": {
      "name": "Software for Real-time and Embedded Systems",
      "sp": 4,
      "phases": [
        {
          "phase": 1,
          "mandatory": false
        },
        {
          "phase": 2,
          "mandatory": false
        }
      ],
      "semester": "first",
      "code": "H04L2A",
      "docents": [
        "Y.Berbers (co\u00f6rdinator)",
        "D.Hughes"
      ]
    },
    "H04G4A": {
      "name": "Security Governance and Operations",
      "sp": 4,
      "phases": [
        {
          "phase": 1,
          "mandatory": true
        },
        {
          "phase": 2,
          "mandatory": true
        }
      ],
      "semester": "second",
      "code": "H04G4A",
      "docents": [
        "C.Huygens"
      ]
    },
    "H0A12A": {
      "name": "Geavanceerde methodes voor softwarearchitectuur",
      "sp": 4,
      "phases": [
        {
          "phase": 2,
          "mandatory": true
        }
      ],
      "semester": "first",
      "code": "H0A12A",
      "docents": [
        "W.Joosen (co\u00f6rdinator)",
        "K.Yskout"
      ]
    },
    "H04K5A": {
      "name": "Development of Secure Software",
      "sp": 4,
      "phases": [
        {
          "phase": 1,
          "mandatory": false
        },
        {
          "phase": 2,
          "mandatory": false
        }
      ],
      "semester": "first",
      "code": "H04K5A",
      "docents": [
        "F.Piessens"
      ]
    },
    "H05M8B": {
      "name": "Capita Selecta Computer Science: Secure Software",
      "sp": 6,
      "phases": [
        {
          "phase": 2,
          "mandatory": true
        }
      ],
      "semester": "both",
      "code": "H05M8B",
      "docents": [
        "F.Piessens (co\u00f6rdinator)",
        "D.Devriese",
        "B.Jacobs",
        "F.Piessens"
      ]
    },
    "G0K32A": {
      "name": "Vereistenanalyse voor complexe softwaresystemen",
      "sp": 3,
      "phases": [
        {
          "phase": 1,
          "mandatory": true
        },
        {
          "phase": 2,
          "mandatory": true
        }
      ],
      "semester": "first",
      "code": "G0K32A",
      "docents": [
        "M.Vanhoef"
      ]
    },
    "H04H8B": {
      "name": "Formal Systems and their Applications",
      "sp": 6,
      "phases": [
        {
          "phase": 1,
          "mandatory": false
        },
        {
          "phase": 2,
          "mandatory": false
        }
      ],
      "semester": "first",
      "code": "H04H8B",
      "docents": [
        "D.Devriese"
      ]
    },
    "H05D9A": {
      "name": "Cryptografie en netwerkbeveiliging",
      "sp": 3,
      "phases": [
        {
          "phase": 2,
          "mandatory": false
        }
      ],
      "semester": "first",
      "code": "H05D9A",
      "docents": [
        "B.Preneel (co\u00f6rdinator)",
        "V.Rijmen"
      ]
    },
    "H02C6A": {
      "name": "Data Mining",
      "sp": 4,
      "phases": [
        {
          "phase": 1,
          "mandatory": true
        },
        {
          "phase": 2,
          "mandatory": true
        }
      ],
      "semester": "second",
      "code": "H02C6A",
      "docents": [
        "J.Davis"
      ]
    },
    "H0T25A": {
      "name": "Machine Learning: Project",
      "sp": 3,
      "phases": [
        {
          "phase": 1,
          "mandatory": true
        },
        {
          "phase": 2,
          "mandatory": true
        }
      ],
      "semester": "second",
      "code": "H0T25A",
      "docents": [
        "W.Meert (co\u00f6rdinator)",
        "K.Tuyls"
      ]
    },
    "H05N0A": {
      "name": "Capita Selecta Computer Science: Artificial Intelligence",
      "sp": 4,
      "phases": [
        {
          "phase": 1,
          "mandatory": true
        },
        {
          "phase": 2,
          "mandatory": true
        }
      ],
      "semester": "both",
      "code": "H05N0A",
      "docents": [
        "M.Guns (co\u00f6rdinator)",
        "G.Marra",
        "T.Schrijvers"
      ]
    },
    "H02D1A": {
      "name": "Genetic Algorithms and Evolutionary Computing",
      "sp": 4,
      "phases": [
        {
          "phase": 1,
          "mandatory": false
        },
        {
          "phase": 2,
          "mandatory": false
        }
      ],
      "semester": "first",
      "code": "H02D1A",
      "docents": [
        "N.Vannieuwenhoven"
      ]
    },
    "H02C3A": {
      "name": "Knowledge Representation",
      "sp": 4,
      "phases": [
        {
          "phase": 1,
          "mandatory": false
        },
        {
          "phase": 2,
          "mandatory": false
        }
      ],
      "semester": "second",
      "code": "H02C3A",
      "docents": [
        "M.Denecker"
      ]
    },
    "H02C8B": {
      "name": "Information Retrieval and Search Engines",
      "sp": 6,
      "phases": [
        {
          "phase": 1,
          "mandatory": false
        },
        {
          "phase": 2,
          "mandatory": false
        }
      ],
      "semester": "second",
      "code": "H02C8B",
      "docents": [
        "N.",
        "M.de Lhoneux (plaatsvervanger)"
      ]
    },
    "H02A8A": {
      "name": "Advanced Programming Languages for A.I.",
      "sp": 4,
      "phases": [
        {
          "phase": 1,
          "mandatory": false
        },
        {
          "phase": 2,
          "mandatory": false
        }
      ],
      "semester": "second",
      "code": "H02A8A",
      "docents": [
        "G.Janssens"
      ]
    },
    "H00Y4A": {
      "name": "Big Data Analytics Programming",
      "sp": 6,
      "phases": [
        {
          "phase": 1,
          "mandatory": false
        },
        {
          "phase": 2,
          "mandatory": false
        }
      ],
      "semester": "both",
      "code": "H00Y4A",
      "docents": [
        "J.Davis"
      ]
    },
    "H02B1A": {
      "name": "Natural Language Processing",
      "sp": 4,
      "phases": [
        {
          "phase": 1,
          "mandatory": false
        },
        {
          "phase": 2,
          "mandatory": false
        }
      ],
      "semester": "first",
      "code": "H02B1A",
      "docents": [
        "M.Moens"
      ]
    },
    "H02A4A": {
      "name": "Robotics",
      "sp": 4,
      "phases": [
        {
          "phase": 1,
          "mandatory": false
        },
        {
          "phase": 2,
          "mandatory": false
        }
      ],
      "semester": "second",
      "code": "H02A4A",
      "docents": [
        "H.Bruyninckx (co\u00f6rdinator)",
        "N.",
        "R.Detry (plaatsvervanger)"
      ]
    },
    "H02A5A": {
      "name": "Computer Vision",
      "sp": 4,
      "phases": [
        {
          "phase": 1,
          "mandatory": false
        },
        {
          "phase": 2,
          "mandatory": false
        }
      ],
      "semester": "second",
      "code": "H02A5A",
      "docents": [
        "N.",
        "M.Proesmans (plaatsvervanger)"
      ]
    },
    "H02A6A": {
      "name": "Speech Recognition",
      "sp": 4,
      "phases": [
        {
          "phase": 1,
          "mandatory": false
        },
        {
          "phase": 2,
          "mandatory": false
        }
      ],
      "semester": "second",
      "code": "H02A6A",
      "docents": [
        "D.Van Compernolle (co\u00f6rdinator)",
        "H.Van hamme"
      ]
    },
    "G0Q63B": {
      "name": "Complexiteitstheorie",
      "sp": 6,
      "phases": [
        {
          "phase": 1,
          "mandatory": true
        },
        {
          "phase": 2,
          "mandatory": true
        }
      ],
      "semester": "second",
      "code": "G0Q63B",
      "docents": [
        "D.Nuyens"
      ]
    },
    "H02D3A": {
      "name": "Support Vector Machines: Methods and Applications",
      "sp": 4,
      "phases": [
        {
          "phase": 1,
          "mandatory": false
        },
        {
          "phase": 2,
          "mandatory": false
        }
      ],
      "semester": "second",
      "code": "H02D3A",
      "docents": [
        "J.Suykens"
      ]
    },
    "G0L15B": {
      "name": "Capita selecta van de software engineering",
      "sp": 4,
      "phases": [
        {
          "phase": 1,
          "mandatory": true
        },
        {
          "phase": 2,
          "mandatory": true
        }
      ],
      "semester": "both",
      "code": "G0L15B",
      "docents": [
        "B.Jacobs (co\u00f6rdinator)",
        "W.Joosen",
        "S.Michiels"
      ]
    },
    "G0Q66C": {
      "name": "Fundamenten van computergrafiek",
      "sp": 3,
      "phases": [
        {
          "phase": 1,
          "mandatory": true
        }
      ],
      "semester": "first",
      "code": "G0Q66C",
      "docents": [
        "P.Dutr\u00e9"
      ]
    },
    "G0Q55A": {
      "name": "Fundamenten van mens-machine-interactie",
      "sp": 6,
      "phases": [
        {
          "phase": 1,
          "mandatory": true
        },
        {
          "phase": 2,
          "mandatory": true
        }
      ],
      "semester": "first",
      "code": "G0Q55A",
      "docents": [
        "K.Verbert (co\u00f6rdinator)"
      ]
    },
    "H05N2A": {
      "name": "Capita selecta, mens-machinecommunicatie en multimedia",
      "sp": 4,
      "phases": [
        {
          "phase": 2,
          "mandatory": true
        }
      ],
      "semester": "both",
      "code": "H05N2A",
      "docents": [
        "P.Dutr\u00e9"
      ]
    },
    "G0B36A": {
      "name": "Computergrafiek 2",
      "sp": 4,
      "phases": [
        {
          "phase": 1,
          "mandatory": false
        },
        {
          "phase": 2,
          "mandatory": false
        }
      ],
      "semester": "second",
      "code": "G0B36A",
      "docents": [
        "P.Dutr\u00e9"
      ]
    },
    "H09J2A": {
      "name": "Image Analysis and Understanding",
      "sp": 6,
      "phases": [
        {
          "phase": 1,
          "mandatory": false
        },
        {
          "phase": 2,
          "mandatory": false
        }
      ],
      "semester": "second",
      "code": "H09J2A",
      "docents": [
        "T.Tuytelaars (co\u00f6rdinator)",
        "L.Van Gool",
        "N.",
        "M.Proesmans (plaatsvervanger)"
      ]
    },
    "H07Z5A": {
      "name": "Computergrafiek: project",
      "sp": 3,
      "phases": [
        {
          "phase": 1,
          "mandatory": false
        },
        {
          "phase": 2,
          "mandatory": false
        }
      ],
      "semester": "none",
      "code": "H07Z5A",
      "docents": [
        "P.Dutr\u00e9"
      ]
    },
    "H04I2A": {
      "name": "Informatievisualisatie",
      "sp": 4,
      "phases": [
        {
          "phase": 1,
          "mandatory": false
        },
        {
          "phase": 2,
          "mandatory": false
        }
      ],
      "semester": "second",
      "code": "H04I2A",
      "docents": [
        "K.Verbert"
      ]
    },
    "H03F9A": {
      "name": "Parallel Computing",
      "sp": 4,
      "phases": [
        {
          "phase": 1,
          "mandatory": true
        },
        {
          "phase": 2,
          "mandatory": true
        }
      ],
      "semester": "first",
      "code": "H03F9A",
      "docents": [
        "K.Meerbergen (co\u00f6rdinator)",
        "M.Diehl",
        "K.Meerbergen"
      ]
    },
    "H03F0B": {
      "name": "Technisch-wetenschappelijke software",
      "sp": 5,
      "phases": [
        {
          "phase": 1,
          "mandatory": true
        },
        {
          "phase": 2,
          "mandatory": true
        }
      ],
      "semester": "first",
      "code": "H03F0B",
      "docents": [
        "R.Cools (co\u00f6rdinator)",
        "K.Meerbergen"
      ]
    },
    "H01G1A": {
      "name": "Computergesteund probleemoplossen",
      "sp": 3,
      "phases": [
        {
          "phase": 1,
          "mandatory": false
        },
        {
          "phase": 2,
          "mandatory": false
        }
      ],
      "semester": "first",
      "code": "H01G1A",
      "docents": [
        "S.Vandewalle (co\u00f6rdinator)",
        "T.Tuytelaars",
        "S.Vandewalle"
      ]
    },
    "H03F7A": {
      "name": "Wavelets with Applications in Signal and Image Processing",
      "sp": 6,
      "phases": [
        {
          "phase": 1,
          "mandatory": false
        },
        {
          "phase": 2,
          "mandatory": false
        }
      ],
      "semester": "first",
      "code": "H03F7A",
      "docents": [
        "D.Huybrechs"
      ]
    },
    "A04D5A": {
      "name": "Religie, zingeving en levensbeschouwing",
      "sp": 3,
      "phases": [
        {
          "phase": 1,
          "mandatory": false
        },
        {
          "phase": 2,
          "mandatory": false
        }
      ],
      "semester": "first",
      "code": "A04D5A",
      "docents": [
        "H.Geybels"
      ]
    },
    "A08C4A": {
      "name": "Religie, zingeving en levensbeschouwing",
      "sp": 3,
      "phases": [
        {
          "phase": 1,
          "mandatory": false
        },
        {
          "phase": 2,
          "mandatory": false
        }
      ],
      "semester": "second",
      "code": "A08C4A",
      "docents": [
        "H.Geybels"
      ]
    },
    "H05U5A": {
      "name": "Capita selecta ingenieurswetenschappen I.1. (Athens / Summer Course)",
      "sp": 3,
      "phases": [
        {
          "phase": 1,
          "mandatory": false
        }
      ],
      "semester": "first",
      "code": "H05U5A",
      "docents": [
        "J.Vander Sloten (co\u00f6rdinator)",
        "N."
      ]
    },
    "H05U6A": {
      "name": "Capita selecta ingenieurswetenschappen I.2. (Athens / Summer Course)",
      "sp": 3,
      "phases": [
        {
          "phase": 1,
          "mandatory": false
        }
      ],
      "semester": "second",
      "code": "H05U6A",
      "docents": [
        "J.Vander Sloten (co\u00f6rdinator)",
        "N."
      ]
    },
    "H04G9B": {
      "name": "Compilerconstructie",
      "sp": 5,
      "phases": [
        {
          "phase": 1,
          "mandatory": false
        },
        {
          "phase": 2,
          "mandatory": false
        }
      ],
      "semester": "first",
      "code": "H04G9B",
      "docents": [
        "T.Schrijvers"
      ]
    },
    "H04I9A": {
      "name": "Industri\u00eble stage: Computerwetenschappen / Industrial Internship: Computer Science",
      "sp": 6,
      "phases": [
        {
          "phase": 2,
          "mandatory": false
        }
      ],
      "semester": "first",
      "code": "H04I9A",
      "docents": [
        "Y.Berbers (co\u00f6rdinator)",
        "W.Joosen"
      ]
    },
    "H04K9A": {
      "name": "Capita selecta ingenieurswetenschappen II.1. (Athens / Summer Course)",
      "sp": 3,
      "phases": [
        {
          "phase": 2,
          "mandatory": false
        }
      ],
      "semester": "first",
      "code": "H04K9A",
      "docents": [
        "J.Vander Sloten (co\u00f6rdinator)",
        "N."
      ]
    },
    "H05U7A": {
      "name": "Capita selecta ingenieurswetenschappen II.2. (Athens / Summer Course)",
      "sp": 3,
      "phases": [
        {
          "phase": 2,
          "mandatory": false
        }
      ],
      "semester": "second",
      "code": "H05U7A",
      "docents": [
        "J.Vander Sloten (co\u00f6rdinator)",
        "N."
      ]
    },
    "H04J4A": {
      "name": "Masterproef",
      "sp": 24,
      "phases": [
        {
          "phase": 2,
          "mandatory": true
        }
      ],
      "semester": "both",
      "code": "H04J4A",
      "docents": [
        "G.Janssens (co\u00f6rdinator)",
        "N."
      ]
    },
    "H09P4A": {
      "name": "Engineering & Entrepreneurship",
      "sp": 6,
      "phases": [
        {
          "phase": 1,
          "mandatory": false
        },
        {
          "phase": 2,
          "mandatory": false
        }
      ],
      "semester": "second",
      "code": "H09P4A",
      "docents": [
        "J.Duflou (co\u00f6rdinator)",
        "C.De Meersman",
        "B.De Moor",
        "J.Duflou",
        "B.Gorissen",
        "N.",
        "J.Joubert (plaatsvervanger)"
      ]
    },
    "H04X2A": {
      "name": "Project Management",
      "sp": 3,
      "phases": [
        {
          "phase": 2,
          "mandatory": false
        }
      ],
      "semester": "second",
      "code": "H04X2A",
      "docents": [
        "J.Duflou (co\u00f6rdinator)",
        "N.",
        "J.Joubert (plaatsvervanger)"
      ]
    },
    "H00K1A": {
      "name": "Engineering Economy",
      "sp": 3,
      "phases": [
        {
          "phase": 1,
          "mandatory": false
        },
        {
          "phase": 2,
          "mandatory": false
        }
      ],
      "semester": "first",
      "code": "H00K1A",
      "docents": [
        "L.Pintelon"
      ]
    },
    "H04G0A": {
      "name": "Bedrijfservaring: Computerwetenschappen / Industrial Experience: Computer Science",
      "sp": 3,
      "phases": [
        {
          "phase": 1,
          "mandatory": false
        },
        {
          "phase": 2,
          "mandatory": false
        }
      ],
      "semester": "first",
      "code": "H04G0A",
      "docents": [
        "Y.Berbers (co\u00f6rdinator)",
        "W.Joosen"
      ]
    },
    "D0H36A": {
      "name": "Innovation Management and Strategy",
      "sp": 6,
      "phases": [
        {
          "phase": 1,
          "mandatory": false
        },
        {
          "phase": 2,
          "mandatory": false
        }
      ],
      "semester": "first",
      "code": "D0H36A",
      "docents": [
        "B.Van Looy"
      ]
    },
    "W0EN7A": {
      "name": "Philosophy of Technology",
      "sp": 4,
      "phases": [
        {
          "phase": 1,
          "mandatory": false
        },
        {
          "phase": 2,
          "mandatory": false
        }
      ],
      "semester": "first",
      "code": "W0EN7A",
      "docents": [
        "L.Lauwaert"
      ]
    },
    "H00K2A": {
      "name": "Management and Information Technology",
      "sp": 3,
      "phases": [
        {
          "phase": 1,
          "mandatory": false
        },
        {
          "phase": 2,
          "mandatory": false
        }
      ],
      "semester": "first",
      "code": "H00K2A",
      "docents": [
        "L.Pintelon"
      ]
    },
    "W0Q19A": {
      "name": "Philosophy of Science / Natural Philosophy: Advanced Course",
      "sp": 6,
      "phases": [
        {
          "phase": 1,
          "mandatory": false
        },
        {
          "phase": 2,
          "mandatory": false
        }
      ],
      "semester": "first",
      "code": "W0Q19A",
      "docents": [
        "S.Wenmackers (co\u00f6rdinator)",
        "C.Maes",
        "S.Wenmackers"
      ]
    },
    "W0T14A": {
      "name": "Wetenschapsfilosofie / natuurfilosofie: verdiepende cursus",
      "sp": 6,
      "phases": [
        {
          "phase": 1,
          "mandatory": false
        },
        {
          "phase": 2,
          "mandatory": false
        }
      ],
      "semester": "first",
      "code": "W0T14A",
      "docents": [
        "S.Wenmackers (co\u00f6rdinator)",
        "C.Maes",
        "S.Wenmackers"
      ]
    },
    "G0O00A": {
      "name": "Statistical Data Analysis",
      "sp": 6,
      "phases": [
        {
          "phase": 1,
          "mandatory": false
        },
        {
          "phase": 2,
          "mandatory": false
        }
      ],
      "semester": "second",
      "code": "G0O00A",
      "docents": [
        "M.Hubert"
      ]
    },
    "D0I69A": {
      "name": "ICT Service Management",
      "sp": 6,
      "phases": [
        {
          "phase": 1,
          "mandatory": false
        },
        {
          "phase": 2,
          "mandatory": false
        }
      ],
      "semester": "second",
      "code": "D0I69A",
      "docents": [
        "B.Baesens (co\u00f6rdinator)",
        "T.Haegemans (plaatsvervanger)"
      ]
    },
    "H04D8A": {
      "name": "Expressievaardigheid in de technische bedrijfsomgeving",
      "sp": 3,
      "phases": [
        {
          "phase": 1,
          "mandatory": false
        },
        {
          "phase": 2,
          "mandatory": false
        }
      ],
      "semester": "second",
      "code": "H04D8A",
      "docents": [
        "G.Craps"
      ]
    },
    "H04E0A": {
      "name": "Plichtenleer van de ingenieur",
      "sp": 3,
      "phases": [
        {
          "phase": 1,
          "mandatory": false
        },
        {
          "phase": 2,
          "mandatory": false
        }
      ],
      "semester": "second",
      "code": "H04E0A",
      "docents": [
        "N."
      ]
    },
    "G0B01A": {
      "name": "Intellectual Property Management",
      "sp": 4,
      "phases": [
        {
          "phase": 1,
          "mandatory": false
        },
        {
          "phase": 2,
          "mandatory": false
        }
      ],
      "semester": "second",
      "code": "G0B01A",
      "docents": [
        "M.Janssens"
      ]
    },
    "P00H0A": {
      "name": "Psychologie m.i.v. psychologie van de waarneming",
      "sp": 3,
      "phases": [
        {
          "phase": 1,
          "mandatory": false
        },
        {
          "phase": 2,
          "mandatory": false
        }
      ],
      "semester": "second",
      "code": "P00H0A",
      "docents": [
        "J.Wagemans"
      ]
    },
    "G0B16A": {
      "name": "Robust Statistics",
      "sp": 6,
      "phases": [
        {
          "phase": 1,
          "mandatory": false
        },
        {
          "phase": 2,
          "mandatory": false
        }
      ],
      "semester": "second",
      "code": "G0B16A",
      "docents": [
        "S.Van Aelst"
      ]
    },
    "G0B68A": {
      "name": "Experimental Design",
      "sp": 4,
      "phases": [
        {
          "phase": 1,
          "mandatory": false
        },
        {
          "phase": 2,
          "mandatory": false
        }
      ],
      "semester": "second",
      "code": "G0B68A",
      "docents": [
        "P.Goos"
      ]
    },
    "G0K34A": {
      "name": "Geschiedenis van de informatica",
      "sp": 4,
      "phases": [
        {
          "phase": 1,
          "mandatory": false
        },
        {
          "phase": 2,
          "mandatory": false
        }
      ],
      "semester": "second",
      "code": "G0K34A",
      "docents": [
        "P.Dutr\u00e9 (co\u00f6rdinator)",
        "K.Van Oudheusden"
      ]
    },
    "C07I6A": {
      "name": "ICT-recht",
      "sp": 4,
      "phases": [
        {
          "phase": 1,
          "mandatory": false
        },
        {
          "phase": 2,
          "mandatory": false
        }
      ],
      "semester": "second",
      "code": "C07I6A",
      "docents": [
        "P.Valcke (co\u00f6rdinator)",
        "A.Vedder"
      ]
    },
    "P0P93A": {
      "name": "Organizational Decision Making and Change",
      "sp": 4,
      "phases": [
        {
          "phase": 1,
          "mandatory": false
        },
        {
          "phase": 2,
          "mandatory": false
        }
      ],
      "semester": "second",
      "code": "P0P93A",
      "docents": [
        "M.Euwema",
        "S.De Baets (plaatsvervanger)"
      ]
    },
    "G0U12B": {
      "name": "Historical and Social Aspects of Physics",
      "sp": 3,
      "phases": [
        {
          "phase": 1,
          "mandatory": false
        },
        {
          "phase": 2,
          "mandatory": false
        }
      ],
      "semester": "second",
      "code": "G0U12B",
      "docents": [
        "K.Temst"
      ]
    },
    "G0R44A": {
      "name": "Science Communication and Outreach",
      "sp": 6,
      "phases": [
        {
          "phase": 1,
          "mandatory": false
        },
        {
          "phase": 2,
          "mandatory": false
        }
      ],
      "semester": "second",
      "code": "G0R44A",
      "docents": [
        "K.Kolenberg"
      ]
    },
    "W0AH4A": {
      "name": "Studium generale: mens- en wereldbeelden",
      "sp": 4,
      "phases": [
        {
          "phase": 1,
          "mandatory": false
        },
        {
          "phase": 2,
          "mandatory": false
        }
      ],
      "semester": "second",
      "code": "W0AH4A",
      "docents": [
        "P.Van Puyvelde (co\u00f6rdinator)",
        "K.Allacker",
        "J.D'hooge",
        "B.Raymaekers",
        "I.Samoy",
        "C.Tamp\u00e8re",
        "P.Van Puyvelde"
      ]
    },
    "C00M0A": {
      "name": "Recht van de intellectuele eigendom",
      "sp": 3,
      "phases": [
        {
          "phase": 1,
          "mandatory": false
        },
        {
          "phase": 2,
          "mandatory": false
        }
      ],
      "semester": "second",
      "code": "C00M0A",
      "docents": [
        "M.Janssens"
      ]
    },
    "H0O00A": {
      "name": "Globale uitdagingen voor een duurzame samenleving",
      "sp": 3,
      "phases": [
        {
          "phase": 1,
          "mandatory": false
        },
        {
          "phase": 2,
          "mandatory": false
        }
      ],
      "semester": "second",
      "code": "H0O00A",
      "docents": [
        "K.Van Acker (co\u00f6rdinator)",
        "W.Dewulf",
        "K.Van Acker",
        "N."
      ]
    },
    "H0T39A": {
      "name": "Entrepreneurship in de praktijk / in practice",
      "sp": 3,
      "phases": [
        {
          "phase": 1,
          "mandatory": false
        },
        {
          "phase": 2,
          "mandatory": false
        }
      ],
      "semester": "second",
      "code": "H0T39A",
      "docents": [
        "Y.Berbers (co\u00f6rdinator)",
        "N."
      ]
    },
    "H0T91A": {
      "name": "Entrepreneurship in practice / service-learning",
      "sp": 6,
      "phases": [
        {
          "phase": 1,
          "mandatory": false
        },
        {
          "phase": 2,
          "mandatory": false
        }
      ],
      "semester": "second",
      "code": "H0T91A",
      "docents": [
        "Y.Berbers (co\u00f6rdinator)",
        "N."
      ]
    },
    "H0P05A": {
      "name": "AI Ethics & Regulation",
      "sp": 4,
      "phases": [
        {
          "phase": 1,
          "mandatory": false
        },
        {
          "phase": 2,
          "mandatory": false
        }
      ],
      "semester": "second",
      "code": "H0P05A",
      "docents": [
        "A.Vedder (co\u00f6rdinator)",
        "P.Valcke",
        "N."
      ]
    },
    "W0AE0A": {
      "name": "Lessen voor de 21ste eeuw",
      "sp": 4,
      "phases": [
        {
          "phase": 1,
          "mandatory": false
        },
        {
          "phase": 2,
          "mandatory": false
        }
      ],
      "semester": "both",
      "code": "W0AE0A",
      "docents": [
        "B.Pattyn (co\u00f6rdinator)",
        "P.d'Hoine"
      ]
    },
    "S0B88A": {
      "name": "Genderstudies",
      "sp": 4,
      "phases": [
        {
          "phase": 1,
          "mandatory": false
        },
        {
          "phase": 2,
          "mandatory": false
        }
      ],
      "semester": "both",
      "code": "S0B88A",
      "docents": [
        "V.Draulans"
      ]
    },
    "H04B3A": {
      "name": "Engels in de bedrijfsomgeving",
      "sp": 3,
      "phases": [
        {
          "phase": 1,
          "mandatory": false
        },
        {
          "phase": 2,
          "mandatory": false
        }
      ],
      "semester": "both",
      "code": "H04B3A",
      "docents": [
        "A.Laffut",
        "A.De Geest (medewerker)"
      ]
    },
    "H04B4A": {
      "name": "Frans in de bedrijfsomgeving",
      "sp": 3,
      "phases": [
        {
          "phase": 1,
          "mandatory": false
        },
        {
          "phase": 2,
          "mandatory": false
        }
      ],
      "semester": "both",
      "code": "H04B4A",
      "docents": [
        "A.Bertels"
      ]
    }
  },
  "tree": {
    "choice_rules": "",
    "blocks": [
      {
        "title": "",
        "group": {
          "choice_rules": "Dit programma kan aangepast worden in functie van het voortraject van de student.\n Voor overgangsmaatregelen i.v.m. de structurele wijzigingen in dit \nprogramma vanaf academiejaar 2019-2020, kunnen studenten terecht op deze webpagina.",
          "blocks": [
            {
              "title": "Bachelor verbredend pakket",
              "group": {
                "choice_rules": "Studenten\n nemen verplicht elk opleidingsonderdeel op, waarvan de behandelde \nmaterie niet aan bod kwam in voorafgaande opleidingen.Opleidingsonderdelen\n waarvan de inhoud wel aan bod kwam, moeten vervangen worden door nog \nniet gekozen opleidingsonderdelen uit de groep \"Verdere optie\". In \noverleg met de programmadirecteur kan dit bachelor-verbredend pakket \naangepast worden aan de specifieke vooropleiding van de student.",
                "blocks": [
                  {
                    "title": "Bachelor verbredend pakket voor studenten met een bachelor in de ingenieurswetenschappen: computerwetenschappen.",
                    "group": {
                      "choice_rules": "",
                      "blocks": [
                        {
                          "opos": [
                            "H04H5B",
                            "H04J9B",
                            "H0O07A",
                            "H04H0B"
                          ]
                        }
                      ]
                    }
                  },
                  {
                    "title": "Bachelor verbredend pakket voor studenten met een bachelor informatica",
                    "group": {
                      "choice_rules": "",
                      "blocks": [
                        {
                          "opos": [
                            "H01F2A",
                            "G0Q57A",
                            "H01L1A"
                          ]
                        }
                      ]
                    }
                  }
                ]
              }
            },
            {
              "title": "Verplicht deel",
              "group": {
                "choice_rules": "Alle opleidingsonderdelen zijn verplicht voor alle studenten.",
                "blocks": [
                  {
                    "opos": [
                      "H04I4A",
                      "H0E96A",
                      "G0B23A",
                      "H09B5B",
                      "H04L5A"
                    ]
                  }
                ]
              }
            },
            {
              "title": "Hoofdoptie",
              "group": {
                "choice_rules": "De student kiest 1 van 6 mogelijke opties.",
                "blocks": [
                  {
                    "title": "Hoofdoptie Gedistribueerde systemen",
                    "group": {
                      "choice_rules": "",
                      "blocks": [
                        {
                          "title": "Plichtgedeelte",
                          "group": {
                            "choice_rules": "Alle opleidingsonderdelen zijn verplicht.",
                            "blocks": [
                              {
                                "opos": [
                                  "H04I0A",
                                  "G0K31B",
                                  "H04G7A"
                                ]
                              }
                            ]
                          }
                        },
                        {
                          "title": "Keuzegedeelte",
                          "group": {
                            "choice_rules": "De student vult zijn hoofdoptie aan tot die minstens 18 studiepunten bedraagt.",
                            "blocks": [
                              {
                                "opos": [
                                  "H02H4A",
                                  "H04L2A",
                                  "H04G4A",
                                  "H0A12A"
                                ]
                              }
                            ]
                          }
                        }
                      ]
                    }
                  },
                  {
                    "title": "Hoofdoptie Veilige software",
                    "group": {
                      "choice_rules": "",
                      "blocks": [
                        {
                          "title": "Plichtgedeelte",
                          "group": {
                            "choice_rules": "Alle opleidingsonderdelen zijn verplicht.",
                            "blocks": [
                              {
                                "opos": [
                                  "H04K5A",
                                  "H04G4A",
                                  "H05M8B"
                                ]
                              }
                            ]
                          }
                        },
                        {
                          "title": "Keuzegedeelte",
                          "group": {
                            "choice_rules": "De student vult zijn hoofdoptie aan tot die minstens 18 studiepunten bedraagt.",
                            "blocks": [
                              {
                                "opos": [
                                  "H04L2A",
                                  "G0K32A",
                                  "H04H8B",
                                  "H04I0A",
                                  "G0K31B",
                                  "H05D9A",
                                  "H0A12A"
                                ]
                              }
                            ]
                          }
                        }
                      ]
                    }
                  },
                  {
                    "title": "Hoofdoptie Artifici\u00eble intelligentie",
                    "group": {
                      "choice_rules": "",
                      "blocks": [
                        {
                          "title": "Plichtgedeelte",
                          "group": {
                            "choice_rules": "Alle opleidingsonderdelen zijn verplicht.",
                            "blocks": [
                              {
                                "opos": [
                                  "H02C6A",
                                  "H0T25A",
                                  "H05N0A"
                                ]
                              }
                            ]
                          }
                        },
                        {
                          "title": "Keuzegedeelte",
                          "group": {
                            "choice_rules": "De student vult zijn hoofdoptie aan tot die minstens 18 studiepunten bedraagt.",
                            "blocks": [
                              {
                                "opos": [
                                  "H02D1A",
                                  "H02C3A",
                                  "H02C8B",
                                  "H02A8A",
                                  "H00Y4A"
                                ]
                              },
                              {
                                "title": "Opleidingsonderdelen uit Master of Artificial Intelligence",
                                "group": {
                                  "choice_rules": "Er \nkunnen ook opleidingsonderdelen gekozen worden uit het programma Master \nof Artificial Intelligence. In het bijzonder sluiten volgende vakken \ngoed aan bij deze optie:",
                                  "blocks": [
                                    {
                                      "opos": [
                                        "H02B1A",
                                        "H02H4A",
                                        "H02A4A",
                                        "H02A5A",
                                        "H02A6A",
                                        "G0Q63B",
                                        "H02D3A"
                                      ]
                                    }
                                  ]
                                }
                              }
                            ]
                          }
                        }
                      ]
                    }
                  },
                  {
                    "title": "Hoofdoptie Software engineering",
                    "group": {
                      "choice_rules": "",
                      "blocks": [
                        {
                          "title": "Plichtgedeelte",
                          "group": {
                            "choice_rules": "Alle opleidingsonderdelen zijn verplicht.",
                            "blocks": [
                              {
                                "opos": [
                                  "G0K32A",
                                  "G0L15B",
                                  "H0A12A"
                                ]
                              }
                            ]
                          }
                        },
                        {
                          "title": "Keuzegedeelte",
                          "group": {
                            "choice_rules": "De student vult zijn hoofdoptie aan tot die minstens 18 studiepunten bedraagt.",
                            "blocks": [
                              {
                                "opos": [
                                  "H04L2A",
                                  "H04H8B",
                                  "H02H4A",
                                  "H04K5A",
                                  "G0K31B"
                                ]
                              }
                            ]
                          }
                        }
                      ]
                    }
                  },
                  {
                    "title": "Hoofdoptie Mens-machinecommunicatie",
                    "group": {
                      "choice_rules": "",
                      "blocks": [
                        {
                          "title": "Plichtgedeelte",
                          "group": {
                            "choice_rules": "Alle opleidingsonderdelen zijn verplicht.",
                            "blocks": [
                              {
                                "opos": [
                                  "G0Q66C",
                                  "G0Q55A",
                                  "H05N2A"
                                ]
                              }
                            ]
                          }
                        },
                        {
                          "title": "Keuzegedeelte",
                          "group": {
                            "choice_rules": "De student vult zijn hoofdoptie aan tot die minstens 18 studiepunten bedraagt.Het\n opleidingsonderdeel P00H0A\u00a0'Psychologie m.i.v. psychologie van de \nwaarneming' uit de\u00a0'Algemeen vormende en onderzoeksondersteunende \ngroep' sluit zeer goed aan bij deze optie.",
                            "blocks": [
                              {
                                "opos": [
                                  "G0B36A",
                                  "H09J2A",
                                  "H07Z5A",
                                  "H04I2A",
                                  "H02C8B"
                                ]
                              }
                            ]
                          }
                        }
                      ]
                    }
                  },
                  {
                    "title": "Hoofdoptie Computationele informatica",
                    "group": {
                      "choice_rules": "",
                      "blocks": [
                        {
                          "title": "Plichtgedeelte",
                          "group": {
                            "choice_rules": "Alle opleidingsonderdelen zijn verplicht.",
                            "blocks": [
                              {
                                "opos": [
                                  "H03F9A",
                                  "H03F0B",
                                  "G0Q63B"
                                ]
                              }
                            ]
                          }
                        },
                        {
                          "title": "Keuzegedeelte",
                          "group": {
                            "choice_rules": "De student vult zijn hoofdoptie aan tot die minstens 18 studiepunten bedraagt.",
                            "blocks": [
                              {
                                "opos": [
                                  "H01G1A",
                                  "H03F7A",
                                  "H02D1A"
                                ]
                              }
                            ]
                          }
                        }
                      ]
                    }
                  }
                ]
              }
            },
            {
              "title": "Verdere optie",
              "group": {
                "choice_rules": "De student vult zijn programma aan tot minstens 120 studiepunten door voor minstens 18 studiepunten te kiezen aan:- opleidingsonderdelen uit onderstaande lijst- opleidingsonderdelen uit zijn hoofdoptie om zich dieper te specialiseren- opleidingsonderdelen uit\u202f\u00e9\u00e9n of meerdere van de andere opties van de master om zich verder te verbreden.E\u00e9n\n van de twee opleidingsonderdelen\u00a0'Religie, zingeving en \nlevensbeschouwing' (A04D5A of A08C4A) moet standaard opgenomen worden \nals onderdeel van dit keuzepakket. Studenten die al eerder geslaagd zijn\n voor een opleidingsonderdeel met dezelfde inhoud voor de start van dit \nprogramma, mogen dit opleidingsonderdeel niet meer opnemen.",
                "blocks": [
                  {
                    "opos": [
                      "A04D5A",
                      "A08C4A",
                      "H05U5A",
                      "H05U6A",
                      "H04G9B",
                      "H04I9A",
                      "H04K9A",
                      "H05U7A"
                    ]
                  }
                ]
              }
            },
            {
              "title": "Masterproef",
              "group": {
                "choice_rules": "De masterproef is verplicht.",
                "blocks": [
                  {
                    "opos": [
                      "H04J4A"
                    ]
                  }
                ]
              }
            },
            {
              "title": "Algemeen vormende en onderzoeksondersteunende groep",
              "group": {
                "choice_rules": "Deze \nkeuzeopleidingsonderdelen beogen de verbreding van de vorming ten \nopzichte van de opleiding op grond waarvan de student is toegelaten tot \nde master; de keuze moet derhalve opleidingsonderdelen betreffen \nwaarvoor de student nog geen credit heeft behaald.De student \nkiest opleidingsonderdelen uit onderstaande lijst voor een minimum van 8\n en tot een maximum van 10 studiepunten, gelet op het volgende:- Een\n student kiest maximaal\u00a0\u00e9\u00e9n van volgende opleidingsonderdelen: \nH04B3A (Engels in de bedrijfsomgeving) of H04B4A (Frans in de \nbedrijfsomgeving).- Het opleidingsonderdeel H04X2A (Project management) moet in hetzelfde jaar opgenomen worden als de Masterproef.-\n Een student besteedt maximum 9 studiepunten aan Bedrijfservaring, \nIndustri\u00eble Stage en Entrepreneurship in de praktijk/in practice.- \nEen student kiest, mits goedkeuring, maximaal\u00a0\u00e9\u00e9n van volgende \nopleidingsonderdelen: H0T39A (Entrepreneurship in de praktijk/in \npractice, 3 sp) en H0T91A (Entrepreneurship in \npractice/service-learning, 6 sp).- Een student kiest \nmaximaal\u00a0\u00e9\u00e9n van de volgende opleidingsonderdelen: C00M0A (Recht \nvan de intellectuele eigendom) of G0B01A (Intellectual Property \nManagement).",
                "blocks": [
                  {
                    "opos": [
                      "H09P4A",
                      "H04X2A",
                      "H00K1A",
                      "H04G0A",
                      "D0H36A",
                      "W0EN7A",
                      "H00K2A",
                      "W0Q19A",
                      "W0T14A",
                      "G0O00A",
                      "D0I69A",
                      "H04D8A",
                      "H04E0A",
                      "G0B01A",
                      "P00H0A",
                      "G0B16A",
                      "G0B68A",
                      "G0K34A",
                      "C07I6A",
                      "P0P93A",
                      "G0U12B",
                      "G0R44A",
                      "W0AH4A",
                      "C00M0A",
                      "H0O00A",
                      "H0T39A",
                      "H0T91A",
                      "H0P05A",
                      "W0AE0A",
                      "S0B88A",
                      "H04B3A",
                      "H04B4A"
                    ]
                  }
                ]
              }
            },
            {
              "title": "Keuze opleidingsonderdelen",
              "group": {
                "choice_rules": "De \nstudent mag ook maximum 6 stp kiezen uit de eigen masteropleiding of \nandere opleidingen aan de faculteit of de universiteit. Als richtlijn \ngeldt dat de gekozen vakken op masterniveau moeten ingericht worden, en \ninhoudelijk niet overlappen met vakken die aangeboden worden in de eigen\n opleiding. Bij vakken die van buiten de eigen opleiding komen is het \nsterk aanbevolen de programmadirecteur te raadplegen, die alleszins de \nfinale beslissing neemt.",
                "blocks": []
              }
            }
          ]
        }
      }
    ]
  }
}